<?xml version="1.0" encoding="utf-8"?>
<!-- Generator: Adobe Illustrator 23.0.0, SVG Export Plug-In . SVG Version: 6.00 Build 0)  -->
<svg version="1.1" id="Layer_1" xmlns="http://www.w3.org/2000/svg" xmlns:xlink="http://www.w3.org/1999/xlink" x="0px" y="0px"
	 width="318px" height="38px" viewBox="0 0 318 38" style="enable-background:new 0 0 318 38;" xml:space="preserve">
<style type="text/css">
	.st0{fill:#FFFFFF;}
</style>
<g>
	<path class="st0" d="M0.9,4.7L8.7,1v28.5h12.4v7H0.9V4.7z"/>
	<path class="st0" d="M45.4,29.5v7H23.9V1.8H45v6.8H31.7v7h12l-2.1,6.6h-9.9v7.3H45.4z"/>
	<path class="st0" d="M46.9,1.8h8.5l4.1,20.7l5.7-19.8h6.6l5.5,19.6l4.1-20.5h8.5l-8,34.7h-7.6l-5.9-19.6l-5.8,19.6h-7.7L46.9,1.8z"
		/>
	<path class="st0" d="M92.2,1l7.8,3.8v31.8h-7.8V1z"/>
	<path class="st0" d="M105.3,25.7c4.2,3,6.7,3.9,10.3,3.9c3.4,0,4.9-1,4.9-3c0-1.7-1.2-2.7-5-4.1l-2.9-1.1c-6-2.2-8.6-5.1-8.6-9.7
		c0-6.2,5-10.4,12.3-10.4c3.6,0,6.8,0.9,10.5,2.9l-2,6.7c-0.4-0.2-0.7-0.3-0.9-0.4c-3-1.2-5.7-1.9-7.9-1.9c-2.7,0-4.1,1-4.1,2.9
		c0,1.3,1,2.1,4.6,3.5l2.9,1.1c6.5,2.5,9.1,5.4,9.1,10.2c0,6.5-5.1,10.6-13,10.6c-4.7,0-9-1.4-12.4-4.1L105.3,25.7z"/>
	<path class="st0" d="M169.7,32.6c-3.6,3.1-7.2,4.4-12.1,4.4c-9.8,0-15.6-6.4-15.6-17.5c0-11.3,5.9-18.1,15.8-18.1
		c4.2,0,7.1,1.1,11.4,4.3l-3.9,6.1c-3.3-2.4-4.9-3-7.6-3c-5,0-7.8,3.8-7.8,10.5c0,6.8,2.8,10.4,8,10.4c2.8,0,5.2-1,7.8-3L169.7,32.6
		z"/>
	<path class="st0" d="M178.7,36.5h-8.3l11.4-34.7h8.2l11.4,34.7H193l-2-6.6h-10.4L178.7,36.5z M189.1,23.2L185.8,12l-3.2,11.1H189.1
		z"/>
	<path class="st0" d="M214.5,1.8c8.2,0,12.7,3.7,12.7,10.6c0,7.4-4.5,11.6-12.7,11.6h-3.2v12.4h-7.8V1.8H214.5z M214.3,17.6
		c3.4,0,5.1-1.7,5.1-5c0-3-1.6-4.3-5.1-4.3h-3.1v9.2H214.3z"/>
	<path class="st0" d="M230.8,36.5h-8.3l11.4-34.7h8.2l11.4,34.7h-8.3l-2-6.6h-10.4L230.8,36.5z M241.3,23.2L238,12l-3.2,11.1H241.3z
		"/>
	<path class="st0" d="M255.6,4.7l7.8-3.8v28.5h12.4v7h-20.2V4.7z"/>
	<path class="st0" d="M289.4,1.8c10.8,0,15.9,5.6,15.9,17.2c0,11.6-5.3,17.4-15.9,17.4h-10.8V1.8H289.4z M289.4,29.2
		c5.5,0,7.8-2.9,7.8-10c0-7.2-2.3-10.2-7.7-10.2h-3.1v20.2H289.4z"/>
	<path class="st0" d="M309.3,1l7.8,3.8v31.8h-7.8V1z"/>
</g>
</svg>
